"DESCRIPTION","DURATION IN MS","NAME","PARENT SUITE","START TIME","STATUS","STOP TIME","SUB SUITE","SUITE","TEST CLASS","TEST METHOD"
"","19059","Verify Web Accessibility Statement page link redirection in footer @staticPage @webAccessibility @sanity @NotInCA","","Tue Feb 25 10:00:57 IST 2025","passed","Tue Feb 25 10:01:16 IST 2025","","Static Page: Web Accessibility Statement","Static Page: Web Accessibility Statement","Verify Web Accessibility Statement page link redirection in footer @staticPage @webAccessibility @sanity @NotInCA"
"","32134","Verify Faceted filters functionality {""facet"":""material"",""facetValue"":""Fabric""} @plpFilterFacet @sanity","","Tue Feb 25 09:48:24 IST 2025","passed","Tue Feb 25 09:48:56 IST 2025","","Product List Page","Product List Page","Verify Faceted filters functionality {""facet"":""material"",""facetValue"":""Fabric""} @plpFilterFacet @sanity"
"","40294","User is able to remove premium monogram for the product @pdp @premiumMonogram @sanity","","Tue Feb 25 09:38:13 IST 2025","passed","Tue Feb 25 09:38:54 IST 2025","","Classic & Premium monograms","Classic & Premium monograms","User is able to remove premium monogram for the product @pdp @premiumMonogram @sanity"
"","52844","Cybersource CC: As a registered user having address and card details saved, Verify successful order placement @cybersource @sanity","","Tue Feb 25 09:14:11 IST 2025","passed","Tue Feb 25 09:15:04 IST 2025","","Checkout Payment Page","Checkout Payment Page","Cybersource CC: As a registered user having address and card details saved, Verify successful order placement @cybersource @sanity"
"","43633","Verify user able to update his personal details @editProfile @sanity","","Tue Feb 25 08:50:22 IST 2025","passed","Tue Feb 25 08:51:06 IST 2025","","My Account: Overview - Edit Personal Details","My Account: Overview - Edit Personal Details","Verify user able to update his personal details @editProfile @sanity"
"","71306","Verify added embroidery initials for the product on the order confirmation page @embroidery @sanity","","Tue Feb 25 09:35:02 IST 2025","passed","Tue Feb 25 09:36:13 IST 2025","","Embroidery","Embroidery","Verify added embroidery initials for the product on the order confirmation page @embroidery @sanity"
"","33141","Verify Faceted filters functionality {""facet"":""color"",""facetValue"":""Grey""} @plpFilterFacet @sanity","","Tue Feb 25 09:47:50 IST 2025","passed","Tue Feb 25 09:48:23 IST 2025","","Product List Page","Product List Page","Verify Faceted filters functionality {""facet"":""color"",""facetValue"":""Grey""} @plpFilterFacet @sanity"
"","65679","Cybersource CC: As a guest user, Verify successful order placement @cybersource @sanity","","Tue Feb 25 09:13:04 IST 2025","passed","Tue Feb 25 09:14:10 IST 2025","","Checkout Payment Page","Checkout Payment Page","Cybersource CC: As a guest user, Verify successful order placement @cybersource @sanity"
"","40452","PayPal Order: Add classic monogram on the cart page and Place order using PayPal @payPalOrder @sanity","","Tue Feb 25 09:21:30 IST 2025","failed","Tue Feb 25 09:22:10 IST 2025","","Order Placement with accents and monograms","Order Placement with accents and monograms","PayPal Order: Add classic monogram on the cart page and Place order using PayPal @payPalOrder @sanity"
"","44933","Verify the delete of a saved address @savedAddress @sanity","","Tue Feb 25 08:52:05 IST 2025","passed","Tue Feb 25 08:52:50 IST 2025","","My Account: Saved Addresses","My Account: Saved Addresses","Verify the delete of a saved address @savedAddress @sanity"
"","32591","As a shopper, I am able to sign in on repair services page @staticPage @repairCenter @sanity","","Tue Feb 25 09:58:06 IST 2025","passed","Tue Feb 25 09:58:39 IST 2025","","Static Page: Repair Centers","Static Page: Repair Centers","As a shopper, I am able to sign in on repair services page @staticPage @repairCenter @sanity"
"","90535","Verify existing user cart items is merging with guest cart items @cartPersistence @sanity","","Tue Feb 25 09:06:27 IST 2025","passed","Tue Feb 25 09:07:58 IST 2025","","Cart Persistence","Cart Persistence","Verify existing user cart items is merging with guest cart items @cartPersistence @sanity"
"","43482","Verify the list of order available on page @managePurchase @sanity","","Tue Feb 25 08:49:38 IST 2025","passed","Tue Feb 25 08:50:21 IST 2025","","My purchase: Verify Order list page","My purchase: Verify Order list page","Verify the list of order available on page @managePurchase @sanity"
"","62360","Verify adding a new payment method @savedPayment @sanity @recaptchaPayment","","Tue Feb 25 08:57:16 IST 2025","passed","Tue Feb 25 08:58:19 IST 2025","","My Account: Saved Payments","My Account: Saved Payments","Verify adding a new payment method @savedPayment @sanity @recaptchaPayment"
"","59451","As a guest shopper, Verify I am able to apply and remove gift card on the checkout page @valuetec @giftCard @sanity","","Tue Feb 25 09:15:46 IST 2025","passed","Tue Feb 25 09:16:46 IST 2025","","Checkout Payment Page","Checkout Payment Page","As a guest shopper, Verify I am able to apply and remove gift card on the checkout page @valuetec @giftCard @sanity"
"","57352","change the password @changePassword @sanity","","Tue Feb 25 08:51:06 IST 2025","passed","Tue Feb 25 08:52:04 IST 2025","","My Account: Overview - Edit Personal Details","My Account: Overview - Edit Personal Details","change the password @changePassword @sanity"
"","21954","Verify same products are seen on compare selection page @CompareSelection @sanity","","Tue Feb 25 09:46:06 IST 2025","passed","Tue Feb 25 09:46:28 IST 2025","","Compare Page Functionality @ComparePage","Compare Page Functionality @ComparePage","Verify same products are seen on compare selection page @CompareSelection @sanity"
"","47564","Verify applicable tax reflecting for valid addresses @avalara @sanity @NotInCA","","Tue Feb 25 09:09:34 IST 2025","passed","Tue Feb 25 09:10:22 IST 2025","","Avalara Integration","Avalara Integration","Verify applicable tax reflecting for valid addresses @avalara @sanity @NotInCA"
"","21251","Verify ATC button on sticky component @pdp @stickyComponent @sanity","","Tue Feb 25 09:42:52 IST 2025","passed","Tue Feb 25 09:43:13 IST 2025","","PDP Components","PDP Components","Verify ATC button on sticky component @pdp @stickyComponent @sanity"
"","50888","Verify edit cart swatch selection and update quantity @cartPage @editCart @sanity","","Tue Feb 25 09:01:29 IST 2025","passed","Tue Feb 25 09:02:19 IST 2025","","Cart Page","Cart Page","Verify edit cart swatch selection and update quantity @cartPage @editCart @sanity"
"","13606","Verify global nav menus drawers and there redirection {""SuperCategory"":""\""Gifts\"""",""URL Contains"":""\""gift-ideas\""""} @globalNav @sanity","","Tue Feb 25 09:28:30 IST 2025","passed","Tue Feb 25 09:28:43 IST 2025","","Header functionality","Header functionality","Verify global nav menus drawers and there redirection {""SuperCategory"":""\""Gifts\"""",""URL Contains"":""\""gift-ideas\""""} @globalNav @sanity"
"","25428","Verify Specifications Details on Product Page @pdp @specification @sanity","","Tue Feb 25 09:41:08 IST 2025","passed","Tue Feb 25 09:41:34 IST 2025","","PDP Components","PDP Components","Verify Specifications Details on Product Page @pdp @specification @sanity"
"","57336","Verify save new address @savedAddress @sanity","","Tue Feb 25 08:53:47 IST 2025","passed","Tue Feb 25 08:54:44 IST 2025","","My Account: Saved Addresses","My Account: Saved Addresses","Verify save new address @savedAddress @sanity"
"","47062","Premium Monogram: User is able to add and remove premium monogram on the cart page @cartPage @premiumMonogram @sanity","","Tue Feb 25 09:03:04 IST 2025","passed","Tue Feb 25 09:03:51 IST 2025","","Cart Page","Cart Page","Premium Monogram: User is able to add and remove premium monogram on the cart page @cartPage @premiumMonogram @sanity"
"","19275","Verify Repair centers page link redirection in footer @staticPage @repairCenter @sanity","","Tue Feb 25 09:56:53 IST 2025","passed","Tue Feb 25 09:57:12 IST 2025","","Static Page: Repair Centers","Static Page: Repair Centers","Verify Repair centers page link redirection in footer @staticPage @repairCenter @sanity"
"","21538","Verify Shipping page link redirection in footer @staticPage @shippingPage @sanity","","Tue Feb 25 09:59:35 IST 2025","passed","Tue Feb 25 09:59:57 IST 2025","","Static Page: Shipping","Static Page: Shipping","Verify Shipping page link redirection in footer @staticPage @shippingPage @sanity"
"","29884","Verify Airline Guide unit switching is working @pdp @airlineGuide @sanity","","Tue Feb 25 09:42:21 IST 2025","passed","Tue Feb 25 09:42:51 IST 2025","","PDP Components","PDP Components","Verify Airline Guide unit switching is working @pdp @airlineGuide @sanity"
"","20105","As a guest shopper, I see sign in and create account options @staticPage @repairCenter1 @sanity","","Tue Feb 25 09:57:13 IST 2025","passed","Tue Feb 25 09:57:33 IST 2025","","Static Page: Repair Centers","Static Page: Repair Centers","As a guest shopper, I see sign in and create account options @staticPage @repairCenter1 @sanity"
"","41562","Verify that price doesn't change on pdp upon adding premium monogram @priceChangeAddPremiumMonogram @sanity","","Tue Feb 25 09:38:54 IST 2025","passed","Tue Feb 25 09:39:36 IST 2025","","Classic & Premium monograms","Classic & Premium monograms","Verify that price doesn't change on pdp upon adding premium monogram @priceChangeAddPremiumMonogram @sanity"
"","19998","Verify recommendation section is available down below the page @pdp @recommendation @sanity","","Tue Feb 25 09:43:34 IST 2025","passed","Tue Feb 25 09:43:54 IST 2025","","PDP Components","PDP Components","Verify recommendation section is available down below the page @pdp @recommendation @sanity"
"","50744","Mark saved address as default @savedAddress @sanity","","Tue Feb 25 08:55:44 IST 2025","passed","Tue Feb 25 08:56:35 IST 2025","","My Account: Saved Addresses","My Account: Saved Addresses","Mark saved address as default @savedAddress @sanity"
"","29377","Verify filters are working fine @plpFilter @sanity","","Tue Feb 25 09:46:54 IST 2025","passed","Tue Feb 25 09:47:24 IST 2025","","Product List Page","Product List Page","Verify filters are working fine @plpFilter @sanity"
"","38009","Verify guest cart items persist if shopper login @cartPersistence @sanity","","Tue Feb 25 09:05:48 IST 2025","failed","Tue Feb 25 09:06:26 IST 2025","","Cart Persistence","Cart Persistence","Verify guest cart items persist if shopper login @cartPersistence @sanity"
"","31695","As a registered shopper, I see request a repair and repair status buttons @staticPage @repairCenter @sanity","","Tue Feb 25 09:57:34 IST 2025","passed","Tue Feb 25 09:58:06 IST 2025","","Static Page: Repair Centers","Static Page: Repair Centers","As a registered shopper, I see request a repair and repair status buttons @staticPage @repairCenter @sanity"
"","46985","Verify zero tax for invalid address on checkout @avalara @sanity","","Tue Feb 25 09:07:58 IST 2025","passed","Tue Feb 25 09:08:45 IST 2025","","Avalara Integration","Avalara Integration","Verify zero tax for invalid address on checkout @avalara @sanity"
"","14853","Verify global nav menus drawers and there redirection {""SuperCategory"":""\""Collections\"""",""URL Contains"":""\""collections\""""} @globalNav @sanity","","Tue Feb 25 09:28:14 IST 2025","passed","Tue Feb 25 09:28:29 IST 2025","","Header functionality","Header functionality","Verify global nav menus drawers and there redirection {""SuperCategory"":""\""Collections\"""",""URL Contains"":""\""collections\""""} @globalNav @sanity"
"","32384","Successful login with valid credentials @userLogin @sanity","","Tue Feb 25 09:32:12 IST 2025","passed","Tue Feb 25 09:32:45 IST 2025","","User Login Functionality","User Login Functionality","Successful login with valid credentials @userLogin @sanity"
"","32660","Search a term in global search. Verify if you see auto-suggestion and redirected correctly to SLP when user clicks on one of the suggestion. @slp @sanity","","Tue Feb 25 09:51:25 IST 2025","passed","Tue Feb 25 09:51:57 IST 2025","","Search List Page","Search List Page","Search a term in global search. Verify if you see auto-suggestion and redirected correctly to SLP when user clicks on one of the suggestion. @slp @sanity"
"","18311","Verify FAQ page link redirection in footer @staticPage @FAQ @sanity","","Tue Feb 25 09:52:18 IST 2025","passed","Tue Feb 25 09:52:36 IST 2025","","Static Page: FAQ","Static Page: FAQ","Verify FAQ page link redirection in footer @staticPage @FAQ @sanity"
"","23934","Review and Ratings: Verify review and rating section available on PDP @pdp @turnTo @reviewSection @sanity","","Tue Feb 25 09:45:20 IST 2025","passed","Tue Feb 25 09:45:43 IST 2025","","Product Details Page","Product Details Page","Review and Ratings: Verify review and rating section available on PDP @pdp @turnTo @reviewSection @sanity"
"","24349","Verify Add to cart from compare page @AddToCartFromComparePage @sanity","","Tue Feb 25 09:46:29 IST 2025","passed","Tue Feb 25 09:46:54 IST 2025","","Compare Page Functionality @ComparePage","Compare Page Functionality @ComparePage","Verify Add to cart from compare page @AddToCartFromComparePage @sanity"
"","81427","Credit Card Order: Add a accent and place order using credit card @creditCardOrder @sanity","","Tue Feb 25 09:16:47 IST 2025","passed","Tue Feb 25 09:18:08 IST 2025","","Order Placement with accents and monograms","Order Placement with accents and monograms","Credit Card Order: Add a accent and place order using credit card @creditCardOrder @sanity"
"","19931","Verify Return page link redirection in footer @staticPage @returnPage @sanity","","Tue Feb 25 09:59:15 IST 2025","passed","Tue Feb 25 09:59:35 IST 2025","","Static Page: Returns","Static Page: Returns","Verify Return page link redirection in footer @staticPage @returnPage @sanity"
"","42527","Verify header cart icon navigates to the cart page @cartPage @sanity","","Tue Feb 25 09:00:45 IST 2025","passed","Tue Feb 25 09:01:28 IST 2025","","Cart Page","Cart Page","Verify header cart icon navigates to the cart page @cartPage @sanity"
"","47266","Verify zero tax for tax free state addresses on checkout @avalara @sanity @NotInCA","","Tue Feb 25 09:08:46 IST 2025","passed","Tue Feb 25 09:09:33 IST 2025","","Avalara Integration","Avalara Integration","Verify zero tax for tax free state addresses on checkout @avalara @sanity @NotInCA"
"","14763","Verify global nav menus drawers and there redirection {""SuperCategory"":""\""Accessories\"""",""URL Contains"":""\""accessories\""""} @globalNav @sanity","","Tue Feb 25 09:27:59 IST 2025","passed","Tue Feb 25 09:28:13 IST 2025","","Header functionality","Header functionality","Verify global nav menus drawers and there redirection {""SuperCategory"":""\""Accessories\"""",""URL Contains"":""\""accessories\""""} @globalNav @sanity"
"","44552","User is able to add premium monogrammable product to the cart @pdp @premiumMonogram @sanity","","Tue Feb 25 09:37:28 IST 2025","passed","Tue Feb 25 09:38:13 IST 2025","","Classic & Premium monograms","Classic & Premium monograms","User is able to add premium monogrammable product to the cart @pdp @premiumMonogram @sanity"
"","38236","Verify error messages of add new payment method @savedPayment @sanity","","Tue Feb 25 08:59:42 IST 2025","failed","Tue Feb 25 09:00:20 IST 2025","","My Account: Saved Payments","My Account: Saved Payments","Verify error messages of add new payment method @savedPayment @sanity"
"","28123","Verify FAQ page functionality @staticPage @FAQ @sanity","","Tue Feb 25 09:52:37 IST 2025","passed","Tue Feb 25 09:53:05 IST 2025","","Static Page: FAQ","Static Page: FAQ","Verify FAQ page functionality @staticPage @FAQ @sanity"
"","38105","User is able to add classic monogrammable product to the cart @pdp @classicMonogram @sanity","","Tue Feb 25 09:36:14 IST 2025","passed","Tue Feb 25 09:36:52 IST 2025","","Classic & Premium monograms","Classic & Premium monograms","User is able to add classic monogrammable product to the cart @pdp @classicMonogram @sanity"
"","55455","Save first new address, that appears as default @savedAddress @sanity","","Tue Feb 25 08:52:50 IST 2025","passed","Tue Feb 25 08:53:46 IST 2025","","My Account: Saved Addresses","My Account: Saved Addresses","Save first new address, that appears as default @savedAddress @sanity"
"","17346","Verify All footer links are available in the footer @footer @sanity","","Tue Feb 25 09:26:45 IST 2025","passed","Tue Feb 25 09:27:02 IST 2025","","Footer","Footer","Verify All footer links are available in the footer @footer @sanity"
"","39924","Verify deleting of a saved payment @savedPayment @sanity","","Tue Feb 25 08:56:36 IST 2025","passed","Tue Feb 25 08:57:16 IST 2025","","My Account: Saved Payments","My Account: Saved Payments","Verify deleting of a saved payment @savedPayment @sanity"
"","25512","Verify creating an account @createAccount @sanity","","Tue Feb 25 09:30:03 IST 2025","passed","Tue Feb 25 09:30:28 IST 2025","","Create an Account","Create an Account","Verify creating an account @createAccount @sanity"
"","43833","Verify My Account menus link redirection @redirection @sanity","","Tue Feb 25 08:48:53 IST 2025","failed","Tue Feb 25 08:49:36 IST 2025","","My Account: Menus navigation's","My Account: Menus navigation's","Verify My Account menus link redirection @redirection @sanity"
"","22193","Verify Maintenance and care details on PDP @pdp @Maintenance @sanity","","Tue Feb 25 09:41:35 IST 2025","passed","Tue Feb 25 09:41:57 IST 2025","","PDP Components","PDP Components","Verify Maintenance and care details on PDP @pdp @Maintenance @sanity"
"","13462","Verify global nav menus drawers and there redirection {""SuperCategory"":""\""Service\"""",""URL Contains"":""\""customer-service\""""} @globalNav @sanity","","Tue Feb 25 09:28:44 IST 2025","passed","Tue Feb 25 09:28:58 IST 2025","","Header functionality","Header functionality","Verify global nav menus drawers and there redirection {""SuperCategory"":""\""Service\"""",""URL Contains"":""\""customer-service\""""} @globalNav @sanity"
"","14235","Verify global nav menus drawers and there redirection {""SuperCategory"":""\""Backpacks\"""",""URL Contains"":""\""backpacks\""""} @globalNav @sanity","","Tue Feb 25 09:27:16 IST 2025","passed","Tue Feb 25 09:27:30 IST 2025","","Header functionality","Header functionality","Verify global nav menus drawers and there redirection {""SuperCategory"":""\""Backpacks\"""",""URL Contains"":""\""backpacks\""""} @globalNav @sanity"
"","35370","Verify include with purchase components on Product Page @pdp @IncludeWithPurchase @sanity","","Tue Feb 25 09:40:32 IST 2025","passed","Tue Feb 25 09:41:07 IST 2025","","PDP Components","PDP Components","Verify include with purchase components on Product Page @pdp @IncludeWithPurchase @sanity"
"","42829","Classic Monogram: User is able to add and remove classic monogram on the cart page @cartPage @classicMonogram @sanity","","Tue Feb 25 09:02:20 IST 2025","passed","Tue Feb 25 09:03:03 IST 2025","","Cart Page","Cart Page","Classic Monogram: User is able to add and remove classic monogram on the cart page @cartPage @classicMonogram @sanity"
"","22011","Verify product details and add to cart displayed on PDP @pdp @sanity","","Tue Feb 25 09:43:55 IST 2025","passed","Tue Feb 25 09:44:17 IST 2025","","Product Details Page","Product Details Page","Verify product details and add to cart displayed on PDP @pdp @sanity"
"","43615","Verify shipping methods selection {""Shipping Method"":""Standard Ground"",""Expected Days"":""5-7 Business Days"",""Shipping Charges"":""$0.00""} @verifyShippingFields @sanity","","Tue Feb 25 09:10:22 IST 2025","passed","Tue Feb 25 09:11:06 IST 2025","","Checkout Shipping Page","Checkout Shipping Page","Verify shipping methods selection {""Shipping Method"":""Standard Ground"",""Expected Days"":""5-7 Business Days"",""Shipping Charges"":""$0.00""} @verifyShippingFields @sanity"
"","17163","Verify Transparency in Supply Chain Act page link redirection in footer @staticPage @transparencySupply @sanity @NotInCA","","Tue Feb 25 10:00:17 IST 2025","passed","Tue Feb 25 10:00:34 IST 2025","","Static Page: Transparency in Supply Chain Act","Static Page: Transparency in Supply Chain Act","Verify Transparency in Supply Chain Act page link redirection in footer @staticPage @transparencySupply @sanity @NotInCA"
"","38066","Verify Faceted filters functionality {""facet"":""gender"",""facetValue"":""Men""} @plpFilterFacet @sanity","","Tue Feb 25 09:50:23 IST 2025","failed","Tue Feb 25 09:51:01 IST 2025","","Product List Page","Product List Page","Verify Faceted filters functionality {""facet"":""gender"",""facetValue"":""Men""} @plpFilterFacet @sanity"
"","24788","Compare Products: Verify products getting added to the compare bar @comparePLP @sanity","","Tue Feb 25 09:47:25 IST 2025","passed","Tue Feb 25 09:47:49 IST 2025","","Product List Page","Product List Page","Compare Products: Verify products getting added to the compare bar @comparePLP @sanity"
"","31925","Add embroidered(Symbol) product to cart and verify embroidery initials on cart and then on checkout @embroidery @sanity","","Tue Feb 25 09:34:29 IST 2025","passed","Tue Feb 25 09:35:01 IST 2025","","Embroidery","Embroidery","Add embroidered(Symbol) product to cart and verify embroidery initials on cart and then on checkout @embroidery @sanity"
"","45171","Verify shipping methods selection {""Shipping Method"":""Priority"",""Expected Days"":""1-2 Business Day"",""Shipping Charges"":""$90.00""} @verifyShippingFields @sanity","","Tue Feb 25 09:11:51 IST 2025","passed","Tue Feb 25 09:12:37 IST 2025","","Checkout Shipping Page","Checkout Shipping Page","Verify shipping methods selection {""Shipping Method"":""Priority"",""Expected Days"":""1-2 Business Day"",""Shipping Charges"":""$90.00""} @verifyShippingFields @sanity"
"","34647","User is able to remove classic monogram for the product @pdp @classicMonogram @sanity","","Tue Feb 25 09:36:53 IST 2025","passed","Tue Feb 25 09:37:27 IST 2025","","Classic & Premium monograms","Classic & Premium monograms","User is able to remove classic monogram for the product @pdp @classicMonogram @sanity"
"","39733","Gift Card Order: Add a premium monogram and place order using gift card @giftCardOrder @sanity @NotInCA","","Tue Feb 25 09:19:28 IST 2025","failed","Tue Feb 25 09:20:07 IST 2025","","Order Placement with accents and monograms","Order Placement with accents and monograms","Gift Card Order: Add a premium monogram and place order using gift card @giftCardOrder @sanity @NotInCA"
"","19469","Verify Modern Slavery Statement page link redirection in footer @staticPage @modernSlavery @sanity","","Tue Feb 25 09:53:09 IST 2025","passed","Tue Feb 25 09:53:28 IST 2025","","Static Page: Modern Slavery Statement","Static Page: Modern Slavery Statement","Verify Modern Slavery Statement page link redirection in footer @staticPage @modernSlavery @sanity"
"","26971","Verify the Login functionality using Invalid credentials @invalidUserLogin @sanity","","Tue Feb 25 09:32:46 IST 2025","passed","Tue Feb 25 09:33:13 IST 2025","","User Login Functionality","User Login Functionality","Verify the Login functionality using Invalid credentials @invalidUserLogin @sanity"
"","19864","Verify View options on sticky component @pdp @stickyComponent @sanity","","Tue Feb 25 09:43:14 IST 2025","passed","Tue Feb 25 09:43:34 IST 2025","","PDP Components","PDP Components","Verify View options on sticky component @pdp @stickyComponent @sanity"
"","53601","Verify Product info and Warranty page link redirection in footer @staticPage @productWarranty @sanity","","Tue Feb 25 09:55:58 IST 2025","passed","Tue Feb 25 09:56:52 IST 2025","","Static Page: Product Info and Warranty","Static Page: Product Info and Warranty","Verify Product info and Warranty page link redirection in footer @staticPage @productWarranty @sanity"
"","43801","Verify shipping methods selection {""Shipping Method"":""Second Day"",""Expected Days"":""2-4 Business Days"",""Shipping Charges"":""$75.00""} @verifyShippingFields @sanity","","Tue Feb 25 09:11:07 IST 2025","passed","Tue Feb 25 09:11:51 IST 2025","","Checkout Shipping Page","Checkout Shipping Page","Verify shipping methods selection {""Shipping Method"":""Second Day"",""Expected Days"":""2-4 Business Days"",""Shipping Charges"":""$75.00""} @verifyShippingFields @sanity"
"","21315","Verify Tumi Lock page link redirection in footer @staticPage @tumiLock @sanity","","Tue Feb 25 10:00:35 IST 2025","passed","Tue Feb 25 10:00:56 IST 2025","","Static Page: Tumi Lock","Static Page: Tumi Lock","Verify Tumi Lock page link redirection in footer @staticPage @tumiLock @sanity"
"","83117","Klarna Order: Verify successful Klarna order placement @klarna @sanity","","Tue Feb 25 09:25:01 IST 2025","failed","Tue Feb 25 09:26:24 IST 2025","","Order Placement with accents and monograms","Order Placement with accents and monograms","Klarna Order: Verify successful Klarna order placement @klarna @sanity"
"","34132","As a shopper, I am able to create account on repair services page @staticPage @repairCenter @createAccount @sanity","","Tue Feb 25 09:58:40 IST 2025","passed","Tue Feb 25 09:59:14 IST 2025","","Static Page: Repair Centers","Static Page: Repair Centers","As a shopper, I am able to create account on repair services page @staticPage @repairCenter @createAccount @sanity"
"","26324","Verify 360 degree view components on Product Page @pdp @360View @sanity","","Tue Feb 25 09:39:37 IST 2025","passed","Tue Feb 25 09:40:03 IST 2025","","PDP Components","PDP Components","Verify 360 degree view components on Product Page @pdp @360View @sanity"
"","40838","User able to add and remove accents on the cart page @cartPage @accent @sanity","","Tue Feb 25 09:33:13 IST 2025","passed","Tue Feb 25 09:33:54 IST 2025","","Accents","Accents","User able to add and remove accents on the cart page @cartPage @accent @sanity"
"","26492","Verify global nav menus drawers and there redirection {""SuperCategory"":""\""Bags\"""",""URL Contains"":""\""bags\""""} @globalNav @sanity","","Tue Feb 25 09:27:31 IST 2025","passed","Tue Feb 25 09:27:58 IST 2025","","Header functionality","Header functionality","Verify global nav menus drawers and there redirection {""SuperCategory"":""\""Bags\"""",""URL Contains"":""\""bags\""""} @globalNav @sanity"
"","58532","Verify edit functionality for saved and default addresses @savedAddress @sanity","","Tue Feb 25 08:54:45 IST 2025","passed","Tue Feb 25 08:55:43 IST 2025","","My Account: Saved Addresses","My Account: Saved Addresses","Verify edit functionality for saved and default addresses @savedAddress @sanity"
"","41138","Cybersource CC: As a registered user having address and card details saved, Verify successful order placement using BuyItNow button @cybersource @sanity","","Tue Feb 25 09:15:05 IST 2025","passed","Tue Feb 25 09:15:46 IST 2025","","Checkout Payment Page","Checkout Payment Page","Cybersource CC: As a registered user having address and card details saved, Verify successful order placement using BuyItNow button @cybersource @sanity"
"","19877","Verify Privacy policy page link redirection in footer @staticPage @privacyPolicy @sanity","","Tue Feb 25 09:53:29 IST 2025","passed","Tue Feb 25 09:53:49 IST 2025","","Static Page: Privacy Policy","Static Page: Privacy Policy","Verify Privacy policy page link redirection in footer @staticPage @privacyPolicy @sanity"
"","33135","Gift Box Options: User able to add gift options on a product @giftOptions @sanity","","Tue Feb 25 09:03:52 IST 2025","passed","Tue Feb 25 09:04:25 IST 2025","","Cart Page","Cart Page","Gift Box Options: User able to add gift options on a product @giftOptions @sanity"
"","27369","Verify product video is available for the product @pdp @video @sanity","","Tue Feb 25 09:40:04 IST 2025","passed","Tue Feb 25 09:40:31 IST 2025","","PDP Components","PDP Components","Verify product video is available for the product @pdp @video @sanity"
"","33207","Edit and Remove Embroidery on the PDP @embroidery @sanity","","Tue Feb 25 09:33:55 IST 2025","passed","Tue Feb 25 09:34:28 IST 2025","","Embroidery","Embroidery","Edit and Remove Embroidery on the PDP @embroidery @sanity"
"","31619","Verify homepage components @homepage @sanity","","Tue Feb 25 09:29:30 IST 2025","passed","Tue Feb 25 09:30:02 IST 2025","","Homepage","Homepage","Verify homepage components @homepage @sanity"
"","18732","Verify Terms and Conditions page link redirection in footer @staticPage @termsAndCondition @sanity","","Tue Feb 25 09:59:58 IST 2025","passed","Tue Feb 25 10:00:16 IST 2025","","Static Page: Terms and Conditions","Static Page: Terms and Conditions","Verify Terms and Conditions page link redirection in footer @staticPage @termsAndCondition @sanity"
"","18532","Newsletter Subscription: Add new email address @footer @newsletter @sanity","","Tue Feb 25 09:26:25 IST 2025","passed","Tue Feb 25 09:26:44 IST 2025","","Footer","Footer","Newsletter Subscription: Add new email address @footer @newsletter @sanity"
"","19181","Verify corporate contacts page link redirection in footer @staticPage @corporateContacts @sanity @NotInCA","","Tue Feb 25 09:51:58 IST 2025","passed","Tue Feb 25 09:52:17 IST 2025","","Static Page: Corporate Contacts","Static Page: Corporate Contacts","Verify corporate contacts page link redirection in footer @staticPage @corporateContacts @sanity @NotInCA"
"","59361","As a registered user having address and card details saved, I am able to see Add to Cart and Buy it Now button on PDP page @pdp @BuyItNowVariation @sanity","","Tue Feb 25 09:44:18 IST 2025","passed","Tue Feb 25 09:45:17 IST 2025","","Product Details Page","Product Details Page","As a registered user having address and card details saved, I am able to see Add to Cart and Buy it Now button on PDP page @pdp @BuyItNowVariation @sanity"
"","26105","Verify QAS in shipping details @EDQ @sanity","","Tue Feb 25 09:12:38 IST 2025","passed","Tue Feb 25 09:13:04 IST 2025","","Checkout Shipping Page","Checkout Shipping Page","Verify QAS in shipping details @EDQ @sanity"
"","22571","Verify Airline Guide details on PDP @pdp @airlineGuide @sanity","","Tue Feb 25 09:41:58 IST 2025","passed","Tue Feb 25 09:42:20 IST 2025","","PDP Components","PDP Components","Verify Airline Guide details on PDP @pdp @airlineGuide @sanity"
"","23239","Verify product displayed on flyout on add to cart @cartFlyout @sanity","","Tue Feb 25 09:00:21 IST 2025","passed","Tue Feb 25 09:00:45 IST 2025","","Cart Flyout","Cart Flyout","Verify product displayed on flyout on add to cart @cartFlyout @sanity"
"","25736","Verify forget password email confirmation message and back to sign in button @forgotPassword @sanity","","Tue Feb 25 09:31:46 IST 2025","passed","Tue Feb 25 09:32:12 IST 2025","","Forgot Password","Forgot Password","Verify forget password email confirmation message and back to sign in button @forgotPassword @sanity"
"","22897","Verify register form error messages @RegisterFormErrorMsg @sanity","","Tue Feb 25 09:31:22 IST 2025","failed","Tue Feb 25 09:31:45 IST 2025","","Create an Account","Create an Account","Verify register form error messages @RegisterFormErrorMsg @sanity"
"","17670","As a guest user, Verify My Account, Search and Cart icons available in the header section @headerIcons @sanity","","Tue Feb 25 09:29:12 IST 2025","passed","Tue Feb 25 09:29:30 IST 2025","","Header functionality","Header functionality","As a guest user, Verify My Account, Search and Cart icons available in the header section @headerIcons @sanity"
"","21404","Scene7: Browse PDP page and verify images coming through Scene7 @pdp @scene7 @sanity","","Tue Feb 25 09:45:44 IST 2025","passed","Tue Feb 25 09:46:06 IST 2025","","Product Details Page","Product Details Page","Scene7: Browse PDP page and verify images coming through Scene7 @pdp @scene7 @sanity"
"","12981","Verify global nav menus drawers and there redirection {""SuperCategory"":""\""Sale\"""",""URL Contains"":""\""sale\""""} @globalNav @sanity","","Tue Feb 25 09:28:58 IST 2025","passed","Tue Feb 25 09:29:11 IST 2025","","Header functionality","Header functionality","Verify global nav menus drawers and there redirection {""SuperCategory"":""\""Sale\"""",""URL Contains"":""\""sale\""""} @globalNav @sanity"
"","12917","Verify global nav menus drawers and there redirection {""SuperCategory"":""\""Luggage\"""",""URL Contains"":""\""luggage\""""} @globalNav @sanity","","Tue Feb 25 09:27:03 IST 2025","passed","Tue Feb 25 09:27:16 IST 2025","","Header functionality","Header functionality","Verify global nav menus drawers and there redirection {""SuperCategory"":""\""Luggage\"""",""URL Contains"":""\""luggage\""""} @globalNav @sanity"
